commitdate_apc,apc_commitid,commitdate_institution,institution_commit_id,nexusnumber,organization
05.01.2021 11:24,https://github.com/OpenAPC/openapc-de/commit/3b05e67201931739aca893c87ad6a3519388e9ea,05.01.2021,https://github.com/OpenAPC/openapc-de/commit/68ef4d11b2f84b7a2fb423f91be19e978368fab2,1,Pädagogische_Hochschule_Luzern
05.01.2021 12:11,https://github.com/OpenAPC/openapc-de/commit/4ac208376ebf9d8ab466f20193c8bb73aaf36c2c,05.01.2021,https://github.com/OpenAPC/openapc-de/commit/65fd88563e62f1e1e6fa34dd36bf44274b147da8,2,Universität_Luzern
19.01.2021 16:53,https://github.com/OpenAPC/openapc-de/commit/39039199728f879d2310a1f0890b92f09d28347e,19.01.2021,https://github.com/OpenAPC/openapc-de/commit/f5b8c753bd2b0b02274f1ab4848851794a18d501,3,Universität_Bern
04.02.2021 12:17,https://github.com/OpenAPC/openapc-de/commit/67b63822f09d5d80c7f35512bc197a824e12dcbf,04.02.2021,https://github.com/OpenAPC/openapc-de/commit/9f7652ddbb471a1aaa01df9228287643d862eb42,4,Kiel_U
18.02.2021 14:40,https://github.com/OpenAPC/openapc-de/commit/f3019895602bd817ce873b1dc038497b8d5fdac1,18.02.2021,https://github.com/OpenAPC/openapc-de/commit/e9e483e4e89a2d036690b8dffe9a897fdf71a493,5,ETH_Zurich
23.02.2021 16:04,https://github.com/OpenAPC/openapc-de/commit/4d45b26a145f550a041ff84a46aa4443607d1a34,23.02.2021,https://github.com/OpenAPC/openapc-de/commit/2a04efd06f54a2395835d1775f7fde07d1ae1db4,6,Université_de_Reims_Champagne_Ardenne
26.02.2021 14:38,https://github.com/OpenAPC/openapc-de/commit/c518955b99d6322a54d0300bd02ffa53aac73ada,26.02.2021,https://github.com/OpenAPC/openapc-de/commit/80357d4afa9202d5208667de1af163da8dce2e07,7,Bonn_U
05.03.2021 13:32,https://github.com/OpenAPC/openapc-de/commit/bce5ad55cb90fcff103dd16f805a1df37606ba7f,03.03.2021,https://github.com/OpenAPC/openapc-de/commit/aa45f6b23898e5038140436d21aaeac2dd8619f5,8,Eawag_-_Swiss_Federal_Institute_of_Aquatic_Science_and_Technology
03.03.2021 16:37,https://github.com/OpenAPC/openapc-de/commit/284e1778b965372c40a1bbb9917b3a275cd8083b,03.03.2021,https://github.com/OpenAPC/openapc-de/commit/aa45f6b23898e5038140436d21aaeac2dd8619f5,9,Empa_-_Swiss_Federal_Laboratories_for_Materials_Science_and_Technology
30.03.2021 17:08,https://github.com/OpenAPC/openapc-de/commit/ec6ba752f8fda2ae3c0aed632c94f2c1698cc334,30.03.2021,https://github.com/OpenAPC/openapc-de/commit/c7434b76a1da491db0bf00066459fd75b0677c39,10,ANSM
30.03.2021 17:08,https://github.com/OpenAPC/openapc-de/commit/ec6ba752f8fda2ae3c0aed632c94f2c1698cc334,30.03.2021,https://github.com/OpenAPC/openapc-de/commit/c7434b76a1da491db0bf00066459fd75b0677c39,11,Institut_Laue-Langevin
30.03.2021 17:08,https://github.com/OpenAPC/openapc-de/commit/ec6ba752f8fda2ae3c0aed632c94f2c1698cc334,30.03.2021,https://github.com/OpenAPC/openapc-de/commit/c7434b76a1da491db0bf00066459fd75b0677c39,12,ISARA
30.03.2021 17:08,https://github.com/OpenAPC/openapc-de/commit/ec6ba752f8fda2ae3c0aed632c94f2c1698cc334,30.03.2021,https://github.com/OpenAPC/openapc-de/commit/c7434b76a1da491db0bf00066459fd75b0677c39,13,Université_Paris-Est_Marne-la-Vallée
31.03.2021 15:13,https://github.com/OpenAPC/openapc-de/commit/5a9062849c6c5e469440a9180798af7099c2c1d4,31.03.2021,https://github.com/OpenAPC/openapc-de/commit/3d11bc4a5c8d7509b8926807e3a62e859da4e88b,14,DIPF
01.07.2021 14:30,https://github.com/OpenAPC/openapc-de/commit/ef8b17df04fd3ad1920742ba52c2af86fbceaaa0,03.05.2021,https://github.com/OpenAPC/openapc-de/commit/d1e4d9f77bbac4cef42962c97fb99167b239d586,15,University_of_Basel
05.05.2021 14:43,https://github.com/OpenAPC/openapc-de/commit/9733e5e675205e5c1aa5b4e8e7ec352e3777f88d,05.05.2021,https://github.com/OpenAPC/openapc-de/commit/01f471cc58af467f3b3c8b7845ae4e82b0de4e6a,16,CNAM
05.05.2021 14:43,https://github.com/OpenAPC/openapc-de/commit/9733e5e675205e5c1aa5b4e8e7ec352e3777f88d,05.05.2021,https://github.com/OpenAPC/openapc-de/commit/01f471cc58af467f3b3c8b7845ae4e82b0de4e6a,17,IMT_Atlantique
18.05.2021 12:41,https://github.com/OpenAPC/openapc-de/commit/a29c42486d6afbd62490710cb5d010a512a391f3,17.05.2021,https://github.com/OpenAPC/openapc-de/commit/18e5c3cf130f95f419666cc5bd0736dbf869f770,18,HS_Düsseldorf
20.05.2021 20:10,https://github.com/OpenAPC/openapc-de/commit/6d9670d7b75dcab160c46a977409252f6264e486,20.05.2021,https://github.com/OpenAPC/openapc-de/commit/5422860773557d607b347c31f7aff538d12eaa68,19,ENSICAEN
20.05.2021 20:10,https://github.com/OpenAPC/openapc-de/commit/6d9670d7b75dcab160c46a977409252f6264e486,20.05.2021,https://github.com/OpenAPC/openapc-de/commit/5422860773557d607b347c31f7aff538d12eaa68,20,Université_des_Antilles
26.08.2022 15:50,https://github.com/OpenAPC/openapc-de/commit/a92bc28fddda04fbd9cd3ef3b9f2ad5e8de80dc0,21.05.2021,https://github.com/OpenAPC/openapc-de/commit/c63bce3da2f4208ae3433dba670937e0de5bb7f6,21,Haaga-Helia_University_of_Applied_Sciences
26.08.2022 15:50,https://github.com/OpenAPC/openapc-de/commit/a92bc28fddda04fbd9cd3ef3b9f2ad5e8de80dc0,21.05.2021,https://github.com/OpenAPC/openapc-de/commit/c63bce3da2f4208ae3433dba670937e0de5bb7f6,22,Häme_University_of_Applied_Sciences
26.08.2022 15:50,https://github.com/OpenAPC/openapc-de/commit/a92bc28fddda04fbd9cd3ef3b9f2ad5e8de80dc0,21.05.2021,https://github.com/OpenAPC/openapc-de/commit/c63bce3da2f4208ae3433dba670937e0de5bb7f6,23,JAMK_University_of_Applied_Sciences
26.08.2022 15:50,https://github.com/OpenAPC/openapc-de/commit/a92bc28fddda04fbd9cd3ef3b9f2ad5e8de80dc0,21.05.2021,https://github.com/OpenAPC/openapc-de/commit/c63bce3da2f4208ae3433dba670937e0de5bb7f6,24,Natural_Resources_Institute_Finland
26.08.2022 15:50,https://github.com/OpenAPC/openapc-de/commit/a92bc28fddda04fbd9cd3ef3b9f2ad5e8de80dc0,21.05.2021,https://github.com/OpenAPC/openapc-de/commit/c63bce3da2f4208ae3433dba670937e0de5bb7f6,25,SAMK_Satakunta_University_of_Applied_Sciences
26.08.2022 15:50,https://github.com/OpenAPC/openapc-de/commit/a92bc28fddda04fbd9cd3ef3b9f2ad5e8de80dc0,21.05.2021,https://github.com/OpenAPC/openapc-de/commit/c63bce3da2f4208ae3433dba670937e0de5bb7f6,26,University_of_Applied_Sciences_Savonia
26.08.2022 15:50,https://github.com/OpenAPC/openapc-de/commit/a92bc28fddda04fbd9cd3ef3b9f2ad5e8de80dc0,21.05.2021,https://github.com/OpenAPC/openapc-de/commit/c63bce3da2f4208ae3433dba670937e0de5bb7f6,27,VTT_Technical_Research_Centre_of_Finland_Ltd
14.06.2021 20:52,https://github.com/OpenAPC/openapc-de/commit/405e9aa4a63317540131d7b26209cf36567de22f,13.06.2021,https://github.com/OpenAPC/openapc-de/commit/a28827614913d1765620705740fc851f65c56ad1,28,ONERA
14.06.2021 20:52,https://github.com/OpenAPC/openapc-de/commit/405e9aa4a63317540131d7b26209cf36567de22f,13.06.2021,https://github.com/OpenAPC/openapc-de/commit/1b851eea0dfca7a6f56209bc08a812d7d3da1d1f,29,Paris_8_Vincennes_-_Saint-Denis
14.06.2021 20:52,https://github.com/OpenAPC/openapc-de/commit/405e9aa4a63317540131d7b26209cf36567de22f,13.06.2021,https://github.com/OpenAPC/openapc-de/commit/a8d81f37d5ea1a33aaf6b478442f5c9c7f52a2f4,30,Université_de_Tours
14.06.2021 20:52,https://github.com/OpenAPC/openapc-de/commit/405e9aa4a63317540131d7b26209cf36567de22f,13.06.2021,https://github.com/OpenAPC/openapc-de/commit/f5c7e76c4aa8010e505e374a2f75db978d50605a,31,Université_du_Littoral_Côte_d'Opale
14.06.2021 20:52,https://github.com/OpenAPC/openapc-de/commit/405e9aa4a63317540131d7b26209cf36567de22f,13.06.2021,https://github.com/OpenAPC/openapc-de/commit/352e69652ec1e4551beee1c5b790b80e4d9aa46d,32,Université_Savoie_Mont_Blanc
14.06.2021 20:52,https://github.com/OpenAPC/openapc-de/commit/405e9aa4a63317540131d7b26209cf36567de22f,14.06.2021,https://github.com/OpenAPC/openapc-de/commit/7d6e15f39777e9db89a0fd57e7f9b173966840a5,33,Le_Mans_Université
14.06.2021 20:52,https://github.com/OpenAPC/openapc-de/commit/405e9aa4a63317540131d7b26209cf36567de22f,14.06.2021,https://github.com/OpenAPC/openapc-de/commit/06214fd207e51e9ab6207a407d6b93bb9caf69c2,34,Université_de_Lille
14.06.2021 20:52,https://github.com/OpenAPC/openapc-de/commit/405e9aa4a63317540131d7b26209cf36567de22f,14.06.2021,https://github.com/OpenAPC/openapc-de/commit/9a9e357ba229c63ea26c8f3bb2f3be9f42df9bf8,35,Université_de_Nouvelle_Calédonie
20.07.2022 12:19,https://github.com/OpenAPC/openapc-de/commit/3dcb6eb6e7e0d4d55cf65ef3085f87fe9579e207,14.06.2021,https://github.com/OpenAPC/openapc-de/commit/cf9f637dce23ee5306d7d1902a28fa05cf4755b3,36,Laboratoire_national_de_métrologie_et_d'essais_-_LNE
28.06.2021 17:23,https://github.com/OpenAPC/openapc-de/commit/99278a05372227032eef2496609b0638d07f0861,28.06.2021,https://github.com/OpenAPC/openapc-de/commit/003cbb4b83d6a752acf50b3690c2b5e0deb47c58,37,MHB_Fontane
01.07.2021 16:51,https://github.com/OpenAPC/openapc-de/commit/0d236718b4b898e0cf9ec77ece5a592208122827,01.07.2021,https://github.com/OpenAPC/openapc-de/commit/d8a661b07abab64553dc83f22fc535ecdf85affd,38,HTW_Dresden
02.07.2021 17:08,https://github.com/OpenAPC/openapc-de/commit/e1081b9a84862c8f3adbbb54c95798310524dbf2,02.07.2021,https://github.com/OpenAPC/openapc-de/commit/ee169803c21c55475110326bda105dbfb9398742,39,Thomas_Jefferson_University
04.10.2021 12:40,https://github.com/OpenAPC/openapc-de/commit/1a102625ff485c8a3d386b08c2f1eb9d71760058,23.07.2021,https://github.com/OpenAPC/openapc-de/commit/93c46c2ec1cea7e01341a406cb9161269b510617,40,ENS_de_Lyon
27.07.2021 14:25,https://github.com/OpenAPC/openapc-de/commit/218bbbdf6b40a488fd80eb0b915ceaa8033de1c3,26.07.2021,https://github.com/OpenAPC/openapc-de/commit/8dccbf440b4c1c27fbf5b9980012baea8d8004a3,41,INSA_Strasbourg
27.07.2021 14:25,https://github.com/OpenAPC/openapc-de/commit/218bbbdf6b40a488fd80eb0b915ceaa8033de1c3,26.07.2021,https://github.com/OpenAPC/openapc-de/commit/4220e38546db1241b4aae998dd4fda9ca00da9e9,42,Université_de_Bretagne_Occidentale
27.07.2021 14:25,https://github.com/OpenAPC/openapc-de/commit/218bbbdf6b40a488fd80eb0b915ceaa8033de1c3,26.07.2021,https://github.com/OpenAPC/openapc-de/commit/ec7ed38191ce4e91a4e73b572837b6e16c9d035c,43,Université_de_Pau_et_des_Pays_de_l'Adour
27.07.2021 14:25,https://github.com/OpenAPC/openapc-de/commit/218bbbdf6b40a488fd80eb0b915ceaa8033de1c3,26.07.2021,https://github.com/OpenAPC/openapc-de/commit/b0e11d0cb3700fa4c663bff0d0ee77a4014c55fc,44,Université_de_Versailles-Saint-Quentin-en-Yvelines
27.07.2022 11:53,https://github.com/OpenAPC/openapc-de/commit/c40e6bc29cf699984ab201108362cc1244a52261,26.07.2021,https://github.com/OpenAPC/openapc-de/commit/d23c2edb84cb66596cba49f1b096963a4334fb0e,45,Université_de_Nîmes
27.07.2022 11:53,https://github.com/OpenAPC/openapc-de/commit/c40e6bc29cf699984ab201108362cc1244a52261,26.07.2021,https://github.com/OpenAPC/openapc-de/commit/8b8069740ee1ce30afb5f80119430ee430ed2553,46,Université_de_Rennes_2
27.07.2021 14:25,https://github.com/OpenAPC/openapc-de/commit/218bbbdf6b40a488fd80eb0b915ceaa8033de1c3,27.07.2021,https://github.com/OpenAPC/openapc-de/commit/9b80bd3149a57a32c65d9f54cb67cd2b764000f5,47,Université_de_Bretagne-Sud
29.07.2021 18:13,https://github.com/OpenAPC/openapc-de/commit/6b999e8ba74ce2685f99c06a1d0e313301ff443b,29.07.2021,https://github.com/OpenAPC/openapc-de/commit/6b7b0527c9adb53eaffc2b4197eaab3171219e6c,48,INSA_de_Lyon
29.07.2021 18:13,https://github.com/OpenAPC/openapc-de/commit/6b999e8ba74ce2685f99c06a1d0e313301ff443b,29.07.2021,https://github.com/OpenAPC/openapc-de/commit/64fee26da09237b65c2f4f4dcd1af1dd8776829c,49,Sorbonne_Université
26.08.2022 15:50,https://github.com/OpenAPC/openapc-de/commit/a92bc28fddda04fbd9cd3ef3b9f2ad5e8de80dc0,11.08.2021,https://github.com/OpenAPC/openapc-de/commit/203edf3a87a30b70b4604b7e364272967d334018,50,Aalto_University
18.08.2021 12:47,https://github.com/OpenAPC/openapc-de/commit/6f3691f5692efa6d814d0dbb6b1ce4b2fb4f8de5,12.08.2021,https://github.com/OpenAPC/openapc-de/commit/c95962fbc0a73c0c0391c53316543ad4605909a4,51,ZHAW_Zurich_University_of_Applied_Sciences
18.08.2021 15:24,https://github.com/OpenAPC/openapc-de/commit/8a733389b7af099cb506046f83073618fab93a96,18.08.2021,https://github.com/OpenAPC/openapc-de/commit/ad5f6665ff50b9fa099bc86110b34517b969f68f,52,PSI_-_Paul_Scherrer_Institute
18.08.2021 15:24,https://github.com/OpenAPC/openapc-de/commit/8a733389b7af099cb506046f83073618fab93a96,18.08.2021,https://github.com/OpenAPC/openapc-de/commit/ad5f6665ff50b9fa099bc86110b34517b969f68f,53,"WSL_-_Swiss_Federal_Institute_for_Forest,_Snow_and_Landscape_Research"
04.10.2021 12:40,https://github.com/OpenAPC/openapc-de/commit/1a102625ff485c8a3d386b08c2f1eb9d71760058,04.10.2021,https://github.com/OpenAPC/openapc-de/commit/f2da2fbbee29690b30824abab9543e1b6a1ebcfd,54,Zurich_University_of_the_Arts
04.10.2021 15:07,https://github.com/OpenAPC/openapc-de/commit/57ec46802f309d61158961c57a13c21d7085c551,04.10.2021,https://github.com/OpenAPC/openapc-de/commit/8a4790c291db7fce5ab56a474b99d70afa6c8339,55,Johannes_Kepler_University_Linz
05.10.2021 13:45,https://github.com/OpenAPC/openapc-de/commit/7737f3b211dee409a92aaf86d636b8dd7daf4916,05.10.2021,https://github.com/OpenAPC/openapc-de/commit/38041c57b06cf44be106983fd3006b8e6e35f437,56,Paul-Drude-Institut_für_Festkörperelektronik
29.10.2021 12:19,https://github.com/OpenAPC/openapc-de/commit/d858b66579f1d6babd0ea01eab4608289e9e47c7,29.10.2021,https://github.com/OpenAPC/openapc-de/commit/97b121fc65dec7b5db1c69536afe90ce78aaab29,57,Magdeburg_U
02.11.2021 10:43,https://github.com/OpenAPC/openapc-de/commit/91dd7be3f1ef93e4f98b19c7ad21b8899ea11225,29.10.2021,https://github.com/OpenAPC/openapc-de/commit/093c8b7f4f0b7c8806d8421db726386626d86988,58,AgroParisTech
02.11.2021 10:43,https://github.com/OpenAPC/openapc-de/commit/91dd7be3f1ef93e4f98b19c7ad21b8899ea11225,29.10.2021,https://github.com/OpenAPC/openapc-de/commit/d326f97cf1c1e4a2e2ac5f920be372d6e431645a,59,ENGEES
02.11.2021 10:43,https://github.com/OpenAPC/openapc-de/commit/91dd7be3f1ef93e4f98b19c7ad21b8899ea11225,29.10.2021,https://github.com/OpenAPC/openapc-de/commit/a1936afd58da428706c895bee2a2eea4eccaf57f,60,ENSTA_Bretagne
02.11.2021 10:43,https://github.com/OpenAPC/openapc-de/commit/91dd7be3f1ef93e4f98b19c7ad21b8899ea11225,29.10.2021,https://github.com/OpenAPC/openapc-de/commit/f400c5deb3482520386ddde85627dfaa3d285853,61,IFREMER
02.11.2021 10:43,https://github.com/OpenAPC/openapc-de/commit/91dd7be3f1ef93e4f98b19c7ad21b8899ea11225,29.10.2021,https://github.com/OpenAPC/openapc-de/commit/655c55d1c17510575520d22cb2bb1445cb8e61cb,62,Sciences_Po_Paris
02.11.2021 10:43,https://github.com/OpenAPC/openapc-de/commit/91dd7be3f1ef93e4f98b19c7ad21b8899ea11225,29.10.2021,https://github.com/OpenAPC/openapc-de/commit/14e580430ab74e72eebe1f247476f58b1451a30c,63,Université_de_Haute-Alsace
02.11.2021 10:43,https://github.com/OpenAPC/openapc-de/commit/91dd7be3f1ef93e4f98b19c7ad21b8899ea11225,29.10.2021,https://github.com/OpenAPC/openapc-de/commit/12989d4a5fc6d52c9ab8c5686d205f2c8341d61e,64,Université_de_Perpignan_-_Via_Domitia
02.11.2021 10:43,https://github.com/OpenAPC/openapc-de/commit/91dd7be3f1ef93e4f98b19c7ad21b8899ea11225,29.10.2021,https://github.com/OpenAPC/openapc-de/commit/df7fd22e452ad48afd87ef378410f816bf852874,65,Université_du_Havre
02.11.2021 10:43,https://github.com/OpenAPC/openapc-de/commit/91dd7be3f1ef93e4f98b19c7ad21b8899ea11225,29.10.2021,https://github.com/OpenAPC/openapc-de/commit/ea063878405027b112ba7e7d8c74c3ad00f92d53,66,Université_Paris_1_Panthéon-Sorbonne
02.11.2021 10:43,https://github.com/OpenAPC/openapc-de/commit/91dd7be3f1ef93e4f98b19c7ad21b8899ea11225,29.10.2021,https://github.com/OpenAPC/openapc-de/commit/43c765ccf93bd55302db2569d766bb425c70e151,67,Université_Paris_Nanterre
12.12.2021 20:43,https://github.com/OpenAPC/openapc-de/commit/e0bb5a83f2a1511efd8fbab12ff002d062867416,12.12.2021,https://github.com/OpenAPC/openapc-de/commit/8e54074d45a785886430d04d856bb4ed6ddf087f,68,CHU_de_Rennes
12.12.2021 20:43,https://github.com/OpenAPC/openapc-de/commit/e0bb5a83f2a1511efd8fbab12ff002d062867416,12.12.2021,https://github.com/OpenAPC/openapc-de/commit/026b6abf09cde1360cb13220993c137ca2a9ebe6,69,Université_de_technologie_de_Troyes
12.12.2021 20:43,https://github.com/OpenAPC/openapc-de/commit/e0bb5a83f2a1511efd8fbab12ff002d062867416,12.12.2021,https://github.com/OpenAPC/openapc-de/commit/54ba585625a3367c878dbb2608ffe41045778ee0,70,Université_Gustave_Eiffel
21.12.2021 20:47,https://github.com/OpenAPC/openapc-de/commit/e7f980a36ec7e5719e1144123d5d82ef7c60e62e,20.12.2021,https://github.com/OpenAPC/openapc-de/commit/17327f7cd895312379eb39b8cfcec678053c0625,71,INRAE
21.12.2021 20:47,https://github.com/OpenAPC/openapc-de/commit/e7f980a36ec7e5719e1144123d5d82ef7c60e62e,20.12.2021,https://github.com/OpenAPC/openapc-de/commit/c76d93244806fadca3a4eb27d0eefc320e89ed3e,72,Université_Polytechnique_Hauts-de-France
21.12.2021 20:47,https://github.com/OpenAPC/openapc-de/commit/e7f980a36ec7e5719e1144123d5d82ef7c60e62e,21.12.2021,https://github.com/OpenAPC/openapc-de/commit/b8508217498f34f94348e7357ebfa9c4b2bebaeb,73,Ecole_centrale_de_Lyon
21.12.2021 20:47,https://github.com/OpenAPC/openapc-de/commit/e7f980a36ec7e5719e1144123d5d82ef7c60e62e,21.12.2021,https://github.com/OpenAPC/openapc-de/commit/34db5611af8731d9be38a4a399620fb121d6e81c,74,European_Synchrotron_Radiation_Facility_(ESRF)
11.01.2022 17:33,https://github.com/OpenAPC/openapc-de/commit/f2ae1df6aad4e96e59292816a86ab3b4ea8ccbac,11.01.2022,https://github.com/OpenAPC/openapc-de/commit/45318fdcb88c8746d89287d7523e727be5c5dfde,75,Pädagogische_Hochschule_Zürich
26.08.2022 15:50,https://github.com/OpenAPC/openapc-de/commit/a92bc28fddda04fbd9cd3ef3b9f2ad5e8de80dc0,13.01.2022,https://github.com/OpenAPC/openapc-de/commit/38a57030c0026783c29c3b2952547d2b8a8d8536,76,Lapin_ammattikorkeakoulu_(fi)
26.08.2022 15:50,https://github.com/OpenAPC/openapc-de/commit/a92bc28fddda04fbd9cd3ef3b9f2ad5e8de80dc0,13.01.2022,https://github.com/OpenAPC/openapc-de/commit/38a57030c0026783c29c3b2952547d2b8a8d8536,77,Seinäjoki_University_of_Applied_Sciences
26.08.2022 15:50,https://github.com/OpenAPC/openapc-de/commit/a92bc28fddda04fbd9cd3ef3b9f2ad5e8de80dc0,13.01.2022,https://github.com/OpenAPC/openapc-de/commit/38a57030c0026783c29c3b2952547d2b8a8d8536,78,South-Eastern_Finland_University_of_Applied_Sciences_(Xamk)
01.02.2022 16:21,https://github.com/OpenAPC/openapc-de/commit/cd7b7c6eeff871cab474f2223a8da5164c77fc82,01.02.2022,https://github.com/OpenAPC/openapc-de/commit/7f67d91cf2a988a21281476b73804c8236df5d4b,79,Halmstad_University
01.02.2022 17:34,https://github.com/OpenAPC/openapc-de/commit/2c7f52d15983429a2246919943d94f5391caef6c,01.02.2022,https://github.com/OpenAPC/openapc-de/commit/f5359e8f61d56e2756c20a63854d2273a63ae32d,80,IFW_Dresden
11.03.2022 12:02,https://github.com/OpenAPC/openapc-de/commit/e87908e411dc080408588946aa4902ec03239a9a,11.03.2022,https://github.com/OpenAPC/openapc-de/commit/89bac37c0afb8d27289ec98c8172c9cd41481bbc,81,Hochschule_Hannover
16.03.2022 12:15,https://github.com/OpenAPC/openapc-de/commit/4f932b253369f9be8a0077c581dc8ffdff4be7c7,16.03.2022,https://github.com/OpenAPC/openapc-de/commit/a17df3cedfe83c83b66efcb076f75cfa09f66a61,82,IRSN
16.03.2022 12:15,https://github.com/OpenAPC/openapc-de/commit/4f932b253369f9be8a0077c581dc8ffdff4be7c7,16.03.2022,https://github.com/OpenAPC/openapc-de/commit/a17df3cedfe83c83b66efcb076f75cfa09f66a61,83,Université_de_Côte_d'Azur
16.03.2022 15:49,https://github.com/OpenAPC/openapc-de/commit/df8e0fb01e114e02ba9ef2e9055bd72145066aaf,16.03.2022,https://github.com/OpenAPC/openapc-de/commit/961d791a69ad64eca07713d61825034c1d77929b,84,Bauhaus-Universität_Weimar
22.03.2022 14:29,https://github.com/OpenAPC/openapc-de/commit/83f2528178cda3757cadc8889577885870c7512c,22.03.2022,https://github.com/OpenAPC/openapc-de/commit/8098cabfb9d40b567005d44e6ad144af0c004b1b,85,Universität_Erfurt
13.04.2022 11:21,https://github.com/OpenAPC/openapc-de/commit/148aa85f3c59d5db9ad4a24a4ba0625afddefb6d,13.04.2022,https://github.com/OpenAPC/openapc-de/commit/507ec4ab66f7613b4f4b5bc5cf04ac78684fcd70,86,Friedrich-Schiller-Universität_Jena
21.04.2022 16:15,https://github.com/OpenAPC/openapc-de/commit/dbff40b8b38fbb74d5838ab5dbdd1141ef87b3b7,21.04.2022,https://github.com/OpenAPC/openapc-de/commit/13435aea56ed88a5e4524995363e545681568200,87,University_of_Helsinki
11.05.2022 16:44,https://github.com/OpenAPC/openapc-de/commit/cef8e88b88d050b8ca6143b25bd3a0321680aa0c,11.05.2022,https://github.com/OpenAPC/openapc-de/commit/ae5b73110cbca06917a2105e3b174de667acf3fa,88,HAW_Hamburg
13.05.2022 13:23,https://github.com/OpenAPC/openapc-de/commit/c776c5bb5c597019525bd58fc37bbfeca47f0c5c,13.05.2022,https://github.com/OpenAPC/openapc-de/commit/cff40d36cb1db178fa61a72c38bebb0e6c5a2528,89,HHU_Düsseldorf
24.05.2022 09:52,https://github.com/OpenAPC/openapc-de/commit/2d65a9f99a34401e9e1218568edb5d39074dd955,23.05.2022,https://github.com/OpenAPC/openapc-de/commit/45c6a8cbc446c57dad99d9acd6f2510b1d7bf4c1,90,BTH_Blekinge_Institute_of_Technology
31.05.2022 12:02,https://github.com/OpenAPC/openapc-de/commit/000ab4a4adc9a114e3a3b9f1dd8efdd53d79c8d4,30.05.2022,https://github.com/OpenAPC/openapc-de/commit/da67bc90ad132bea3645b0f07c18da9b2154d402,91,Jönköping_University
31.05.2022 13:21,https://github.com/OpenAPC/openapc-de/commit/b74dae7003165f511a9f0317b97d0e055502884c,31.05.2022,https://github.com/OpenAPC/openapc-de/commit/32effafc423ab7ed114b4bdbf16c390aa4cb62bc,92,Catholic_University_of_Eichstätt-Ingolstadt
03.06.2022 15:11,https://github.com/OpenAPC/openapc-de/commit/d8e2ae1c895946287fcc1ff400c0cb709aee75a6,03.06.2022,https://github.com/OpenAPC/openapc-de/commit/e0c29ed3b6a17791c178f97a66571095d4094946,93,Université_Jean_Moulin_-_Lyon_III
23.06.2022 15:03,https://github.com/OpenAPC/openapc-de/commit/edca1cd00ee8ff36de0d290cb825bfe1bf1d7b71,22.06.2022,https://github.com/OpenAPC/openapc-de/commit/6d1a9d9693b7c431b50ecf1ba4d814cc758f6df6,94,EURECOM
24.06.2022 16:23,https://github.com/OpenAPC/openapc-de/commit/f86e44956ed2f927da81e083c096daef959e615c,24.06.2022,https://github.com/OpenAPC/openapc-de/commit/0564ae4da545ce0d7446b3a2b7413edb9ac73059,95,Birkbeck_College
24.06.2022 16:23,https://github.com/OpenAPC/openapc-de/commit/f86e44956ed2f927da81e083c096daef959e615c,24.06.2022,https://github.com/OpenAPC/openapc-de/commit/0564ae4da545ce0d7446b3a2b7413edb9ac73059,96,Mahidol_University_of_Oxford_Tropical_Medicine_Research_Unit
24.06.2022 16:23,https://github.com/OpenAPC/openapc-de/commit/f86e44956ed2f927da81e083c096daef959e615c,24.06.2022,https://github.com/OpenAPC/openapc-de/commit/0564ae4da545ce0d7446b3a2b7413edb9ac73059,97,Malawi_Liverpool_Wellcome
24.06.2022 16:23,https://github.com/OpenAPC/openapc-de/commit/f86e44956ed2f927da81e083c096daef959e615c,24.06.2022,https://github.com/OpenAPC/openapc-de/commit/0564ae4da545ce0d7446b3a2b7413edb9ac73059,98,Oxford_University_Clinical_Research_Unit
24.06.2022 16:23,https://github.com/OpenAPC/openapc-de/commit/f86e44956ed2f927da81e083c096daef959e615c,24.06.2022,https://github.com/OpenAPC/openapc-de/commit/0564ae4da545ce0d7446b3a2b7413edb9ac73059,99,Royal_Veterinary_College
27.06.2022 14:54,https://github.com/OpenAPC/openapc-de/commit/8e89c841d5312fa93655c74c7dc92c1f968bfcbd,27.06.2022,https://github.com/OpenAPC/openapc-de/commit/aa42b78159eb1a17443fe4d1207f21ee5f15e249,100,SWP_-_German_Institute_for_International_and_Security_Affairs
28.06.2022 15:18,https://github.com/OpenAPC/openapc-de/commit/657eb7204a96476ecae073c14558aa4b1ede2b4d,28.06.2022,https://github.com/OpenAPC/openapc-de/commit/4913886295ab1c16c0b928cc03ecc51ae9feabf7,101,University_of_Vaasa
01.07.2022 12:34,https://github.com/OpenAPC/openapc-de/commit/ba6d1970a304835509f4cb1f04993d6f2f557455,01.07.2022,https://github.com/OpenAPC/openapc-de/commit/1e9b33e7e04f6704d78f2732a35b1918639ef709,102,ENAC
01.07.2022 14:41,https://github.com/OpenAPC/openapc-de/commit/11060238db79bcddf83fd776a4fa613d548e148f,01.07.2022,https://github.com/OpenAPC/openapc-de/commit/d98d7c34c41a461f43262665fe54cec9845c5edd,103,Åbo_Akademi_University
26.08.2022 15:50,https://github.com/OpenAPC/openapc-de/commit/a92bc28fddda04fbd9cd3ef3b9f2ad5e8de80dc0,15.07.2022,https://github.com/OpenAPC/openapc-de/commit/423b0fe823264b6e6c7ce1669b957015cbe5aede,104,Finnish_Environment_Institute
26.08.2022 15:50,https://github.com/OpenAPC/openapc-de/commit/a92bc28fddda04fbd9cd3ef3b9f2ad5e8de80dc0,25.08.2022,https://github.com/OpenAPC/openapc-de/commit/40e3a74dc914893586afcef69d087d5e86184c0d,105,The_National_Defence_University
14.09.2022 17:11,https://github.com/OpenAPC/openapc-de/commit/9504fdba79121a78b0a7fd46863fe5e5c7445c61,14.09.2022,https://github.com/OpenAPC/openapc-de/commit/b3dc9d0109f9cdf84ce4f2e564d883e548123786,106,CentraleSupélec
14.09.2022 17:11,https://github.com/OpenAPC/openapc-de/commit/9504fdba79121a78b0a7fd46863fe5e5c7445c61,14.09.2022,https://github.com/OpenAPC/openapc-de/commit/b3dc9d0109f9cdf84ce4f2e564d883e548123786,107,Ecole_polytechnique
14.09.2022 17:11,https://github.com/OpenAPC/openapc-de/commit/9504fdba79121a78b0a7fd46863fe5e5c7445c61,14.09.2022,https://github.com/OpenAPC/openapc-de/commit/b3dc9d0109f9cdf84ce4f2e564d883e548123786,108,Université_de_Picardie_Jules_Verne
14.09.2022 17:11,https://github.com/OpenAPC/openapc-de/commit/9504fdba79121a78b0a7fd46863fe5e5c7445c61,14.09.2022,https://github.com/OpenAPC/openapc-de/commit/b3dc9d0109f9cdf84ce4f2e564d883e548123786,109,Université_Paris_Dauphine-PSL
11.10.2022 13:52,https://github.com/OpenAPC/openapc-de/commit/f251d889c47eab7a26a624e0a2fdff941b9f89fa,11.10.2022,https://github.com/OpenAPC/openapc-de/commit/f483b44c1fc959be9a39dd37af0eebf013779f49,110,University_of_Oulu
09.11.2022 15:34,https://github.com/OpenAPC/openapc-de/commit/1d865a96c0fbb08d2d5296b4bfa7495aeaf40d94,09.11.2022,https://github.com/OpenAPC/openapc-de/commit/1de0203610a5474a71522236081c5bc2467270a3,111,University_Medical_Center_Hamburg-Eppendorf
02.12.2022 15:44,https://github.com/OpenAPC/openapc-de/commit/63b5853cbb48015ed7bc20dfdc5cbad3065cc806,02.12.2022,https://github.com/OpenAPC/openapc-de/commit/8f2ef7aa859d3b17192b8b998fb95e287f7dffea,112,Consiglio_Nazionale_Delle_Ricerche_(CNR)
10.01.2023 14:05,https://github.com/OpenAPC/openapc-de/commit/e2c249ec83c07ca1c0bdd2e7a19e0f0ab7dc9578,09.01.2023,https://github.com/OpenAPC/openapc-de/commit/f20a1cc4fea7f0db793a12a32198741a1657c570,113,École_nationale_vétérinaire_d'Alfort_(EnvA)
18.01.2023 13:26,https://github.com/OpenAPC/openapc-de/commit/767d3669164f8614d51bc8228615cb70a69f7e1d,18.01.2023,https://github.com/OpenAPC/openapc-de/commit/6e83ae0cac85fd6a82a8605756aa39e84959b861,114,ANSES
18.01.2023 13:26,https://github.com/OpenAPC/openapc-de/commit/767d3669164f8614d51bc8228615cb70a69f7e1d,18.01.2023,https://github.com/OpenAPC/openapc-de/commit/6e83ae0cac85fd6a82a8605756aa39e84959b861,115,EHESP
30.01.2023 13:07,https://github.com/OpenAPC/openapc-de/commit/0731abd00c9902a65508efcbfee4acd6a968baab,18.01.2023,https://github.com/OpenAPC/openapc-de/commit/6e83ae0cac85fd6a82a8605756aa39e84959b861,116,Université_Paris_Cité
26.01.2023 14:44,https://github.com/OpenAPC/openapc-de/commit/937faa33647fd5768d697401e66109bc38d259f9,26.01.2023,https://github.com/OpenAPC/openapc-de/commit/5e258c889b74a7272f458732879295f11df70c2d,117,RWTH_Aachen
01.02.2023 10:39,https://github.com/OpenAPC/openapc-de/commit/1e2f10ff6eb12f85958764578327deb4b54ce8fc,27.01.2023,https://github.com/OpenAPC/openapc-de/commit/37f77d2b3336ddbe1897b6063516052c7564333a,118,DESY
01.02.2023 14:08,https://github.com/OpenAPC/openapc-de/commit/615ad9d9fb153ec31b7c0cfcf01b3c7ef1948a4d,01.02.2023,https://github.com/OpenAPC/openapc-de/commit/73fb793e4d14150c55ff2eb7dc1cbd8afc180abf,119,Hochschule_Bonn-Rhein-Sieg
09.03.2023 11:35,https://github.com/OpenAPC/openapc-de/commit/bff50b19ba17db861d58ccc49bc65e85dd39b637,09.03.2023,https://github.com/OpenAPC/openapc-de/commit/6bcea15883d646bfc931e0a8a55359efb4c63d90,120,University_of_Lausanne
27.03.2023 15:48,https://github.com/OpenAPC/openapc-de/commit/8d8e58ea0b0283004cedf3676bd76a1fb7f07af2,27.03.2023,https://github.com/OpenAPC/openapc-de/commit/2e0cd4d4f807b6a1a910525d0bb45d28152a77ed,121,TH_Brandenburg
13.04.2023 10:37,https://github.com/OpenAPC/openapc-de/commit/e0eb0bf07e295b4766b8ac6ae4b51708b7d726a8,13.04.2023,https://github.com/OpenAPC/openapc-de/commit/acc7b848ed22b47865ff2266b994ef26fa309993,122,TU_Bergakademie_Freiberg
17.04.2023 16:24,https://github.com/OpenAPC/openapc-de/commit/1d60b6a25fffb9f2cc68414ebf3b08c45a6bcdea,17.04.2023,https://github.com/OpenAPC/openapc-de/commit/0615e7d98c4ddaf0010e800b184db40ab0dda80e,123,Aachen_FH
25.04.2023 16:12,https://github.com/OpenAPC/openapc-de/commit/6b61b325591de12288cf4462b07b5fcecdd24a12,25.04.2023,https://github.com/OpenAPC/openapc-de/commit/d2fe88f0e1eea1f4e198a4d697daa5661167a27e,124,Uniarts_Helsinki
03.05.2023 16:03,https://github.com/OpenAPC/openapc-de/commit/492adaab320de0ade308e85bd37214b4ea6a35de,03.05.2023,https://github.com/OpenAPC/openapc-de/commit/631f85141e32e0eeb859b2c27b855fc28f994252,125,Université_de_Bordeaux_Montaigne
05.05.2023 12:55,https://github.com/OpenAPC/openapc-de/commit/ee16f86b41e071965389d3f7caeeda1ac3123717,05.05.2023,https://github.com/OpenAPC/openapc-de/commit/b7dbde4437e2ea7e68fd0bb6f41fa64a4adf15fa,126,Università_degli_Studi_di_Modena_e_Reggio_Emilia
12.05.2023 15:05,https://github.com/OpenAPC/openapc-de/commit/de0afeca90f3163755a2500e923b5b1179077893,12.05.2023,https://github.com/OpenAPC/openapc-de/commit/1bd4e8b3cc6026ee72676ba1b61b1c2fabd8f94c,127,Potsdam_FH
14.06.2023 09:05,https://github.com/OpenAPC/openapc-de/commit/89cdcfddde8300dacea92bc1a1ce8542ecb7b3ad,13.06.2023,https://github.com/OpenAPC/openapc-de/commit/736ed7459415c926b070f8bcce20d9ce1d9b4987,128,Université_d'Orléans
