commitdate,commitid,currentnumber,nexusnumber,indicator,organization
2021-01-05T11:24:10+01:00,https://github.com/OpenAPC/openapc-de/commit/3b05e67201931739aca893c87ad6a3519388e9ea,273,1,inserted,Pädagogische_Hochschule_Luzern
2021-01-05T12:11:56+01:00,https://github.com/OpenAPC/openapc-de/commit/4ac208376ebf9d8ab466f20193c8bb73aaf36c2c,274,2,inserted,Universität_Luzern
2021-01-19T16:53:18+01:00,https://github.com/OpenAPC/openapc-de/commit/39039199728f879d2310a1f0890b92f09d28347e,275,3,inserted,Universität_Bern
2021-01-29T11:49:11+01:00,https://github.com/OpenAPC/openapc-de/commit/9cd78856e4f8ec167615fe31ac932cead0fc06a1,276,4,inserted,University_of_Gävle
2021-02-04T12:17:53+01:00,https://github.com/OpenAPC/openapc-de/commit/67b63822f09d5d80c7f35512bc197a824e12dcbf,277,5,inserted,Kiel_U
2021-02-18T14:40:59+01:00,https://github.com/OpenAPC/openapc-de/commit/f3019895602bd817ce873b1dc038497b8d5fdac1,278,6,inserted,ETH_Zurich
2021-02-23T16:04:51+01:00,https://github.com/OpenAPC/openapc-de/commit/4d45b26a145f550a041ff84a46aa4443607d1a34,279,7,inserted,Université_de_Reims_Champagne_Ardenne
2021-02-26T14:38:30+01:00,https://github.com/OpenAPC/openapc-de/commit/c518955b99d6322a54d0300bd02ffa53aac73ada,280,8,inserted,Bonn_U
2021-03-03T16:37:59+01:00,https://github.com/OpenAPC/openapc-de/commit/284e1778b965372c40a1bbb9917b3a275cd8083b,282,10,inserted,Eawag:_Swiss_Federal_Institute_of_Aquatic_Science_and_Technology
2021-03-03T16:37:59+01:00,https://github.com/OpenAPC/openapc-de/commit/284e1778b965372c40a1bbb9917b3a275cd8083b,282,10,inserted,Empa_-_Swiss_Federal_Laboratories_for_Materials_Science_and_Technology
2021-03-05T13:32:19+01:00,https://github.com/OpenAPC/openapc-de/commit/bce5ad55cb90fcff103dd16f805a1df37606ba7f,282,10,removed,Eawag:_Swiss_Federal_Institute_of_Aquatic_Science_and_Technology
2021-03-05T13:32:19+01:00,https://github.com/OpenAPC/openapc-de/commit/bce5ad55cb90fcff103dd16f805a1df37606ba7f,282,10,inserted,Eawag_-_Swiss_Federal_Institute_of_Aquatic_Science_and_Technology
2021-03-30T17:08:14+02:00,https://github.com/OpenAPC/openapc-de/commit/ec6ba752f8fda2ae3c0aed632c94f2c1698cc334,286,14,inserted,ANSM
2021-03-30T17:08:14+02:00,https://github.com/OpenAPC/openapc-de/commit/ec6ba752f8fda2ae3c0aed632c94f2c1698cc334,286,14,inserted,Institut_Laue-Langevin
2021-03-30T17:08:14+02:00,https://github.com/OpenAPC/openapc-de/commit/ec6ba752f8fda2ae3c0aed632c94f2c1698cc334,286,14,inserted,ISARA
2021-03-30T17:08:14+02:00,https://github.com/OpenAPC/openapc-de/commit/ec6ba752f8fda2ae3c0aed632c94f2c1698cc334,286,14,inserted,Université_Paris-Est_Marne-la-Vallée
2021-03-31T15:13:14+02:00,https://github.com/OpenAPC/openapc-de/commit/5a9062849c6c5e469440a9180798af7099c2c1d4,287,15,inserted,DIPF
2021-04-16T13:06:38+02:00,https://github.com/OpenAPC/openapc-de/commit/eca90aebeb437c519182e6e4e337e81ebd73ebad,287,15,removed,Universität_Bern
2021-04-16T13:06:38+02:00,https://github.com/OpenAPC/openapc-de/commit/eca90aebeb437c519182e6e4e337e81ebd73ebad,287,15,inserted,University_of_Bern
2021-05-03T19:21:52+02:00,https://github.com/OpenAPC/openapc-de/commit/537365b655c31965561867bdcf36cbc0bc3ea263,288,16,inserted,Basel_U
2021-05-05T14:43:28+02:00,https://github.com/OpenAPC/openapc-de/commit/9733e5e675205e5c1aa5b4e8e7ec352e3777f88d,290,18,inserted,CNAM
2021-05-05T14:43:28+02:00,https://github.com/OpenAPC/openapc-de/commit/9733e5e675205e5c1aa5b4e8e7ec352e3777f88d,290,18,inserted,IMT_Atlantique
2021-05-18T12:41:57+02:00,https://github.com/OpenAPC/openapc-de/commit/a29c42486d6afbd62490710cb5d010a512a391f3,291,19,inserted,HS_Düsseldorf
2021-05-20T20:10:42+02:00,https://github.com/OpenAPC/openapc-de/commit/6d9670d7b75dcab160c46a977409252f6264e486,293,21,inserted,ENSICAEN
2021-05-20T20:10:42+02:00,https://github.com/OpenAPC/openapc-de/commit/6d9670d7b75dcab160c46a977409252f6264e486,293,21,inserted,Université_des_Antilles
2021-05-21T17:24:12+02:00,https://github.com/OpenAPC/openapc-de/commit/38e7adfb24899fa0190ecaac9df13e3094423700,300,28,inserted,Haaga-Helia_University_of_Applied_Sciences
2021-05-21T17:24:12+02:00,https://github.com/OpenAPC/openapc-de/commit/38e7adfb24899fa0190ecaac9df13e3094423700,300,28,inserted,Häme_University_of_Applied_Sciences
2021-05-21T17:24:12+02:00,https://github.com/OpenAPC/openapc-de/commit/38e7adfb24899fa0190ecaac9df13e3094423700,300,28,inserted,JAMK_University_of_Applied_Sciences
2021-05-21T17:24:12+02:00,https://github.com/OpenAPC/openapc-de/commit/38e7adfb24899fa0190ecaac9df13e3094423700,300,28,inserted,Natural_Resources_Institute_Finland
2021-05-21T17:24:12+02:00,https://github.com/OpenAPC/openapc-de/commit/38e7adfb24899fa0190ecaac9df13e3094423700,300,28,inserted,SAMK_Satakunta_University_of_Applied_Sciences
2021-05-21T17:24:12+02:00,https://github.com/OpenAPC/openapc-de/commit/38e7adfb24899fa0190ecaac9df13e3094423700,300,28,inserted,University_of_Applied_Sciences_Savonia
2021-05-21T17:24:12+02:00,https://github.com/OpenAPC/openapc-de/commit/38e7adfb24899fa0190ecaac9df13e3094423700,300,28,inserted,VTT_Technical_Research_Centre_of_Finland_Ltd
2021-06-14T20:52:49+02:00,https://github.com/OpenAPC/openapc-de/commit/405e9aa4a63317540131d7b26209cf36567de22f,309,37,inserted,Laboratoire_national_d'essais_(LNE)
2021-06-14T20:52:49+02:00,https://github.com/OpenAPC/openapc-de/commit/405e9aa4a63317540131d7b26209cf36567de22f,309,37,inserted,Le_Mans_Université
2021-06-14T20:52:49+02:00,https://github.com/OpenAPC/openapc-de/commit/405e9aa4a63317540131d7b26209cf36567de22f,309,37,inserted,ONERA
2021-06-14T20:52:49+02:00,https://github.com/OpenAPC/openapc-de/commit/405e9aa4a63317540131d7b26209cf36567de22f,309,37,inserted,Paris_8_Vincennes_-_Saint-Denis
2021-06-14T20:52:49+02:00,https://github.com/OpenAPC/openapc-de/commit/405e9aa4a63317540131d7b26209cf36567de22f,309,37,inserted,Université_de_Lille
2021-06-14T20:52:49+02:00,https://github.com/OpenAPC/openapc-de/commit/405e9aa4a63317540131d7b26209cf36567de22f,309,37,inserted,Université_de_Nouvelle_Calédonie
2021-06-14T20:52:49+02:00,https://github.com/OpenAPC/openapc-de/commit/405e9aa4a63317540131d7b26209cf36567de22f,309,37,inserted,Université_de_Tours
2021-06-14T20:52:49+02:00,https://github.com/OpenAPC/openapc-de/commit/405e9aa4a63317540131d7b26209cf36567de22f,309,37,inserted,Université_du_Littoral_Côte_d'Opale
2021-06-14T20:52:49+02:00,https://github.com/OpenAPC/openapc-de/commit/405e9aa4a63317540131d7b26209cf36567de22f,309,37,inserted,Université_Savoie_Mont_Blanc
2021-06-28T17:23:43+02:00,https://github.com/OpenAPC/openapc-de/commit/99278a05372227032eef2496609b0638d07f0861,310,38,inserted,MHB_Fontane
2021-07-01T14:30:31+02:00,https://github.com/OpenAPC/openapc-de/commit/ef8b17df04fd3ad1920742ba52c2af86fbceaaa0,310,38,removed,Basel_U
2021-07-01T14:30:31+02:00,https://github.com/OpenAPC/openapc-de/commit/ef8b17df04fd3ad1920742ba52c2af86fbceaaa0,310,38,inserted,University_of_Basel
2021-07-01T16:51:52+02:00,https://github.com/OpenAPC/openapc-de/commit/0d236718b4b898e0cf9ec77ece5a592208122827,311,39,inserted,HTW_Dresden
2021-07-02T17:08:39+02:00,https://github.com/OpenAPC/openapc-de/commit/e1081b9a84862c8f3adbbb54c95798310524dbf2,312,40,inserted,Thomas_Jefferson_University
2021-07-27T14:25:46+02:00,https://github.com/OpenAPC/openapc-de/commit/218bbbdf6b40a488fd80eb0b915ceaa8033de1c3,318,46,inserted,ENS_Lyon
2021-07-27T14:25:46+02:00,https://github.com/OpenAPC/openapc-de/commit/218bbbdf6b40a488fd80eb0b915ceaa8033de1c3,318,46,inserted,INSA_Strasbourg
2021-07-27T14:25:46+02:00,https://github.com/OpenAPC/openapc-de/commit/218bbbdf6b40a488fd80eb0b915ceaa8033de1c3,318,46,inserted,Université_de_Bretagne_Occidentale
2021-07-27T14:25:46+02:00,https://github.com/OpenAPC/openapc-de/commit/218bbbdf6b40a488fd80eb0b915ceaa8033de1c3,318,46,inserted,Université_de_Bretagne-Sud
2021-07-27T14:25:46+02:00,https://github.com/OpenAPC/openapc-de/commit/218bbbdf6b40a488fd80eb0b915ceaa8033de1c3,318,46,inserted,Université_de_Pau_et_des_Pays_de_l'Adour
2021-07-27T14:25:46+02:00,https://github.com/OpenAPC/openapc-de/commit/218bbbdf6b40a488fd80eb0b915ceaa8033de1c3,318,46,inserted,Université_de_Versailles-Saint-Quentin-en-Yvelines
2021-07-29T18:13:55+02:00,https://github.com/OpenAPC/openapc-de/commit/6b999e8ba74ce2685f99c06a1d0e313301ff443b,320,48,inserted,INSA_de_Lyon
2021-07-29T18:13:55+02:00,https://github.com/OpenAPC/openapc-de/commit/6b999e8ba74ce2685f99c06a1d0e313301ff443b,320,48,inserted,Sorbonne_Université
2021-08-11T17:18:24+02:00,https://github.com/OpenAPC/openapc-de/commit/1b54eafacacb440ba2a978442a90c6bc53d9271f,321,49,inserted,Aalto_University
2021-08-12T11:43:53+02:00,https://github.com/OpenAPC/openapc-de/commit/5205081fda3683bb21fee6356a2c42aa54fbacaa,322,50,inserted,Zurich_University_of_Applied_Sciences
2021-08-18T12:47:33+02:00,https://github.com/OpenAPC/openapc-de/commit/6f3691f5692efa6d814d0dbb6b1ce4b2fb4f8de5,322,50,removed,Zurich_University_of_Applied_Sciences
2021-08-18T12:47:33+02:00,https://github.com/OpenAPC/openapc-de/commit/6f3691f5692efa6d814d0dbb6b1ce4b2fb4f8de5,322,50,inserted,ZHAW_Zurich_University_of_Applied_Sciences
2021-08-18T15:24:40+02:00,https://github.com/OpenAPC/openapc-de/commit/8a733389b7af099cb506046f83073618fab93a96,324,52,inserted,PSI_-_Paul_Scherrer_Institute
2021-08-18T15:24:40+02:00,https://github.com/OpenAPC/openapc-de/commit/8a733389b7af099cb506046f83073618fab93a96,324,52,inserted,"WSL_-_Swiss_Federal_Institute_for_Forest,_Snow_and_Landscape_Research"
2021-10-04T12:40:45+02:00,https://github.com/OpenAPC/openapc-de/commit/1a102625ff485c8a3d386b08c2f1eb9d71760058,325,53,inserted,ENS_de_Lyon
2021-10-04T12:40:45+02:00,https://github.com/OpenAPC/openapc-de/commit/1a102625ff485c8a3d386b08c2f1eb9d71760058,325,53,removed,ENS_Lyon
2021-10-04T12:40:45+02:00,https://github.com/OpenAPC/openapc-de/commit/1a102625ff485c8a3d386b08c2f1eb9d71760058,325,53,inserted,Zurich_University_of_the_Arts
2021-10-04T15:07:13+02:00,https://github.com/OpenAPC/openapc-de/commit/57ec46802f309d61158961c57a13c21d7085c551,326,54,inserted,Johannes_Kepler_University_Linz
2021-10-05T13:45:38+02:00,https://github.com/OpenAPC/openapc-de/commit/7737f3b211dee409a92aaf86d636b8dd7daf4916,327,55,inserted,Paul-Drude-Institut_für_Festkörperelektronik
2021-10-29T12:19:15+02:00,https://github.com/OpenAPC/openapc-de/commit/d858b66579f1d6babd0ea01eab4608289e9e47c7,328,56,inserted,Magdeburg_U
2021-11-02T10:43:58+01:00,https://github.com/OpenAPC/openapc-de/commit/91dd7be3f1ef93e4f98b19c7ad21b8899ea11225,338,66,inserted,AgroParisTech
2021-11-02T10:43:58+01:00,https://github.com/OpenAPC/openapc-de/commit/91dd7be3f1ef93e4f98b19c7ad21b8899ea11225,338,66,inserted,ENGEES
2021-11-02T10:43:58+01:00,https://github.com/OpenAPC/openapc-de/commit/91dd7be3f1ef93e4f98b19c7ad21b8899ea11225,338,66,inserted,ENSTA_Bretagne
2021-11-02T10:43:58+01:00,https://github.com/OpenAPC/openapc-de/commit/91dd7be3f1ef93e4f98b19c7ad21b8899ea11225,338,66,inserted,IFREMER
2021-11-02T10:43:58+01:00,https://github.com/OpenAPC/openapc-de/commit/91dd7be3f1ef93e4f98b19c7ad21b8899ea11225,338,66,inserted,Sciences_Po_Paris
2021-11-02T10:43:58+01:00,https://github.com/OpenAPC/openapc-de/commit/91dd7be3f1ef93e4f98b19c7ad21b8899ea11225,338,66,inserted,Université_de_Haute-Alsace
2021-11-02T10:43:58+01:00,https://github.com/OpenAPC/openapc-de/commit/91dd7be3f1ef93e4f98b19c7ad21b8899ea11225,338,66,inserted,Université_de_Perpignan_-_Via_Domitia
2021-11-02T10:43:58+01:00,https://github.com/OpenAPC/openapc-de/commit/91dd7be3f1ef93e4f98b19c7ad21b8899ea11225,338,66,inserted,Université_du_Havre
2021-11-02T10:43:58+01:00,https://github.com/OpenAPC/openapc-de/commit/91dd7be3f1ef93e4f98b19c7ad21b8899ea11225,338,66,inserted,Université_Paris_1_Panthéon-Sorbonne
2021-11-02T10:43:58+01:00,https://github.com/OpenAPC/openapc-de/commit/91dd7be3f1ef93e4f98b19c7ad21b8899ea11225,338,66,inserted,Université_Paris_Nanterre
2021-12-12T20:43:41+01:00,https://github.com/OpenAPC/openapc-de/commit/e0bb5a83f2a1511efd8fbab12ff002d062867416,341,69,inserted,CHU_de_Rennes
2021-12-12T20:43:41+01:00,https://github.com/OpenAPC/openapc-de/commit/e0bb5a83f2a1511efd8fbab12ff002d062867416,341,69,inserted,Université_de_technologie_de_Troyes
2021-12-12T20:43:41+01:00,https://github.com/OpenAPC/openapc-de/commit/e0bb5a83f2a1511efd8fbab12ff002d062867416,341,69,inserted,Université_Gustave_Eiffel
2021-12-21T20:47:07+01:00,https://github.com/OpenAPC/openapc-de/commit/e7f980a36ec7e5719e1144123d5d82ef7c60e62e,345,73,inserted,Ecole_centrale_de_Lyon
2021-12-21T20:47:07+01:00,https://github.com/OpenAPC/openapc-de/commit/e7f980a36ec7e5719e1144123d5d82ef7c60e62e,345,73,inserted,European_Synchrotron_Radiation_Facility_(ESRF)
2021-12-21T20:47:07+01:00,https://github.com/OpenAPC/openapc-de/commit/e7f980a36ec7e5719e1144123d5d82ef7c60e62e,345,73,inserted,INRAE
2021-12-21T20:47:07+01:00,https://github.com/OpenAPC/openapc-de/commit/e7f980a36ec7e5719e1144123d5d82ef7c60e62e,345,73,inserted,Université_Polytechnique_Hauts-de-France
2022-01-11T17:33:12+01:00,https://github.com/OpenAPC/openapc-de/commit/f2ae1df6aad4e96e59292816a86ab3b4ea8ccbac,346,74,inserted,Pädagogische_Hochschule_Zürich
2022-01-13T16:57:49+01:00,https://github.com/OpenAPC/openapc-de/commit/90060a2029b36dfcc44b52797c28e5afb70c1b14,349,77,inserted,Lapin_ammattikorkeakoulu_(fi)
2022-01-13T16:57:49+01:00,https://github.com/OpenAPC/openapc-de/commit/90060a2029b36dfcc44b52797c28e5afb70c1b14,349,77,inserted,Seinäjoki_University_of_Applied_Sciences
2022-01-13T16:57:49+01:00,https://github.com/OpenAPC/openapc-de/commit/90060a2029b36dfcc44b52797c28e5afb70c1b14,349,77,inserted,South-Eastern_Finland_University_of_Applied_Sciences_(Xamk)
2022-02-01T16:21:18+01:00,https://github.com/OpenAPC/openapc-de/commit/cd7b7c6eeff871cab474f2223a8da5164c77fc82,350,78,inserted,Halmstad_University
2022-02-01T17:34:27+01:00,https://github.com/OpenAPC/openapc-de/commit/2c7f52d15983429a2246919943d94f5391caef6c,351,79,inserted,IFW_Dresden
2022-03-11T12:02:53+01:00,https://github.com/OpenAPC/openapc-de/commit/e87908e411dc080408588946aa4902ec03239a9a,352,80,inserted,Hochschule_Hannover
2022-03-16T12:15:19+01:00,https://github.com/OpenAPC/openapc-de/commit/4f932b253369f9be8a0077c581dc8ffdff4be7c7,353,81,inserted,IRSN
2022-03-16T12:15:19+01:00,https://github.com/OpenAPC/openapc-de/commit/4f932b253369f9be8a0077c581dc8ffdff4be7c7,353,81,inserted,Université_de_Côte_d'Azur
2022-03-16T12:15:19+01:00,https://github.com/OpenAPC/openapc-de/commit/4f932b253369f9be8a0077c581dc8ffdff4be7c7,353,81,removed,Université_Nice-Sophia-Antipolis
2022-03-16T15:49:42+01:00,https://github.com/OpenAPC/openapc-de/commit/df8e0fb01e114e02ba9ef2e9055bd72145066aaf,354,82,inserted,Bauhaus-Universität_Weimar
2022-03-22T14:29:36+01:00,https://github.com/OpenAPC/openapc-de/commit/83f2528178cda3757cadc8889577885870c7512c,355,83,inserted,Universität_Erfurt
2022-04-13T11:21:30+02:00,https://github.com/OpenAPC/openapc-de/commit/148aa85f3c59d5db9ad4a24a4ba0625afddefb6d,356,84,inserted,Friedrich-Schiller-Universität_Jena
2022-04-21T16:15:53+02:00,https://github.com/OpenAPC/openapc-de/commit/dbff40b8b38fbb74d5838ab5dbdd1141ef87b3b7,357,85,inserted,University_of_Helsinki
2022-05-11T16:44:14+02:00,https://github.com/OpenAPC/openapc-de/commit/cef8e88b88d050b8ca6143b25bd3a0321680aa0c,358,86,inserted,HAW_Hamburg
2022-05-13T13:23:06+02:00,https://github.com/OpenAPC/openapc-de/commit/c776c5bb5c597019525bd58fc37bbfeca47f0c5c,359,87,inserted,HHU_Düsseldorf
2022-05-24T09:52:05+02:00,https://github.com/OpenAPC/openapc-de/commit/2d65a9f99a34401e9e1218568edb5d39074dd955,360,88,inserted,BTH_Blekinge_Institute_of_Technology
2022-05-25T09:41:00+02:00,https://github.com/OpenAPC/openapc-de/commit/451a9c71c27dde6fd6669dccf27333da67a5e436,359,87,removed,Lapin_ammattikorkeakoulu_(fi)
2022-05-30T14:40:51+02:00,https://github.com/OpenAPC/openapc-de/commit/3076ef40e1ba8ae9903a6a3ac277fa3d84efc25b,360,88,inserted,Jönköping_University
2022-05-31T12:01:55+02:00,https://github.com/OpenAPC/openapc-de/commit/54d826c4d7263e52d61840ad1928a3c029c1fc8a,359,87,removed,Jönköping_University
2022-05-31T12:02:53+02:00,https://github.com/OpenAPC/openapc-de/commit/000ab4a4adc9a114e3a3b9f1dd8efdd53d79c8d4,360,88,inserted,Jönköping_University
2022-05-31T13:21:25+02:00,https://github.com/OpenAPC/openapc-de/commit/b74dae7003165f511a9f0317b97d0e055502884c,361,89,inserted,Catholic_University_of_Eichstätt-Ingolstadt
2022-06-03T15:11:39+02:00,https://github.com/OpenAPC/openapc-de/commit/d8e2ae1c895946287fcc1ff400c0cb709aee75a6,362,90,inserted,Université_Jean_Moulin_-_Lyon_III
2022-06-09T12:49:09+02:00,https://github.com/OpenAPC/openapc-de/commit/86dee17e409977b57b742ebc569ed8a929db9b47,363,91,inserted,Lapin_ammattikorkeakoulu_(fi)
2022-06-23T15:03:31+02:00,https://github.com/OpenAPC/openapc-de/commit/edca1cd00ee8ff36de0d290cb825bfe1bf1d7b71,364,92,inserted,EURECOM
2022-06-24T16:23:52+02:00,https://github.com/OpenAPC/openapc-de/commit/f86e44956ed2f927da81e083c096daef959e615c,369,97,inserted,Birkbeck_College
2022-06-24T16:23:52+02:00,https://github.com/OpenAPC/openapc-de/commit/f86e44956ed2f927da81e083c096daef959e615c,369,97,inserted,Mahidol_University_of_Oxford_Tropical_Medicine_Research_Unit
2022-06-24T16:23:52+02:00,https://github.com/OpenAPC/openapc-de/commit/f86e44956ed2f927da81e083c096daef959e615c,369,97,inserted,Malawi_Liverpool_Wellcome
2022-06-24T16:23:52+02:00,https://github.com/OpenAPC/openapc-de/commit/f86e44956ed2f927da81e083c096daef959e615c,369,97,inserted,Oxford_University_Clinical_Research_Unit
2022-06-24T16:23:52+02:00,https://github.com/OpenAPC/openapc-de/commit/f86e44956ed2f927da81e083c096daef959e615c,369,97,inserted,Royal_Veterinary_College
2022-06-27T14:54:52+02:00,https://github.com/OpenAPC/openapc-de/commit/8e89c841d5312fa93655c74c7dc92c1f968bfcbd,370,98,inserted,SWP_-_German_Institute_for_International_and_Security_Affairs
2022-06-28T15:18:43+02:00,https://github.com/OpenAPC/openapc-de/commit/657eb7204a96476ecae073c14558aa4b1ede2b4d,371,99,inserted,University_of_Vaasa
2022-07-01T12:34:10+02:00,https://github.com/OpenAPC/openapc-de/commit/ba6d1970a304835509f4cb1f04993d6f2f557455,372,100,inserted,ENAC
2022-07-01T14:41:31+02:00,https://github.com/OpenAPC/openapc-de/commit/11060238db79bcddf83fd776a4fa613d548e148f,373,101,inserted,Åbo_Akademi_University
2022-07-06T12:34:30+02:00,https://github.com/OpenAPC/openapc-de/commit/9e6f2fa0f984285f765d131a8be7d21efa0a5ab1,373,101,inserted,Avignon_Université
2022-07-06T12:34:30+02:00,https://github.com/OpenAPC/openapc-de/commit/9e6f2fa0f984285f765d131a8be7d21efa0a5ab1,373,101,removed,Université_d'Avignon_et_des_Pays_de_Vaucluse
2022-07-15T13:39:32+02:00,https://github.com/OpenAPC/openapc-de/commit/b6774e4adad4a2a9d2522975b83374b6d67edd92,362,90,removed,Aalto_University
2022-07-15T13:39:32+02:00,https://github.com/OpenAPC/openapc-de/commit/b6774e4adad4a2a9d2522975b83374b6d67edd92,362,90,removed,Haaga-Helia_University_of_Applied_Sciences
2022-07-15T13:39:32+02:00,https://github.com/OpenAPC/openapc-de/commit/b6774e4adad4a2a9d2522975b83374b6d67edd92,362,90,removed,Häme_University_of_Applied_Sciences
2022-07-15T13:39:32+02:00,https://github.com/OpenAPC/openapc-de/commit/b6774e4adad4a2a9d2522975b83374b6d67edd92,362,90,removed,JAMK_University_of_Applied_Sciences
2022-07-15T13:39:32+02:00,https://github.com/OpenAPC/openapc-de/commit/b6774e4adad4a2a9d2522975b83374b6d67edd92,362,90,removed,Lapin_ammattikorkeakoulu_(fi)
2022-07-15T13:39:32+02:00,https://github.com/OpenAPC/openapc-de/commit/b6774e4adad4a2a9d2522975b83374b6d67edd92,362,90,removed,Natural_Resources_Institute_Finland
2022-07-15T13:39:32+02:00,https://github.com/OpenAPC/openapc-de/commit/b6774e4adad4a2a9d2522975b83374b6d67edd92,362,90,removed,SAMK_Satakunta_University_of_Applied_Sciences
2022-07-15T13:39:32+02:00,https://github.com/OpenAPC/openapc-de/commit/b6774e4adad4a2a9d2522975b83374b6d67edd92,362,90,removed,Seinäjoki_University_of_Applied_Sciences
2022-07-15T13:39:32+02:00,https://github.com/OpenAPC/openapc-de/commit/b6774e4adad4a2a9d2522975b83374b6d67edd92,362,90,removed,South-Eastern_Finland_University_of_Applied_Sciences_(Xamk)
2022-07-15T13:39:32+02:00,https://github.com/OpenAPC/openapc-de/commit/b6774e4adad4a2a9d2522975b83374b6d67edd92,362,90,removed,University_of_Applied_Sciences_Savonia
2022-07-15T13:39:32+02:00,https://github.com/OpenAPC/openapc-de/commit/b6774e4adad4a2a9d2522975b83374b6d67edd92,362,90,removed,VTT_Technical_Research_Centre_of_Finland_Ltd
2022-07-15T15:25:33+02:00,https://github.com/OpenAPC/openapc-de/commit/c3d1fbe2f4454a5c1417071be5f362c0b33d85b8,374,102,inserted,Aalto_University
2022-07-15T15:25:33+02:00,https://github.com/OpenAPC/openapc-de/commit/c3d1fbe2f4454a5c1417071be5f362c0b33d85b8,374,102,inserted,Finnish_Environment_Institute
2022-07-15T15:25:33+02:00,https://github.com/OpenAPC/openapc-de/commit/c3d1fbe2f4454a5c1417071be5f362c0b33d85b8,374,102,inserted,Haaga-Helia_University_of_Applied_Sciences
2022-07-15T15:25:33+02:00,https://github.com/OpenAPC/openapc-de/commit/c3d1fbe2f4454a5c1417071be5f362c0b33d85b8,374,102,inserted,Häme_University_of_Applied_Sciences
2022-07-15T15:25:33+02:00,https://github.com/OpenAPC/openapc-de/commit/c3d1fbe2f4454a5c1417071be5f362c0b33d85b8,374,102,inserted,JAMK_University_of_Applied_Sciences
2022-07-15T15:25:33+02:00,https://github.com/OpenAPC/openapc-de/commit/c3d1fbe2f4454a5c1417071be5f362c0b33d85b8,374,102,inserted,Lapin_ammattikorkeakoulu_(fi)
2022-07-15T15:25:33+02:00,https://github.com/OpenAPC/openapc-de/commit/c3d1fbe2f4454a5c1417071be5f362c0b33d85b8,374,102,inserted,Natural_Resources_Institute_Finland
2022-07-15T15:25:33+02:00,https://github.com/OpenAPC/openapc-de/commit/c3d1fbe2f4454a5c1417071be5f362c0b33d85b8,374,102,inserted,SAMK_Satakunta_University_of_Applied_Sciences
2022-07-15T15:25:33+02:00,https://github.com/OpenAPC/openapc-de/commit/c3d1fbe2f4454a5c1417071be5f362c0b33d85b8,374,102,inserted,Seinäjoki_University_of_Applied_Sciences
2022-07-15T15:25:33+02:00,https://github.com/OpenAPC/openapc-de/commit/c3d1fbe2f4454a5c1417071be5f362c0b33d85b8,374,102,inserted,South-Eastern_Finland_University_of_Applied_Sciences_(Xamk)
2022-07-15T15:25:33+02:00,https://github.com/OpenAPC/openapc-de/commit/c3d1fbe2f4454a5c1417071be5f362c0b33d85b8,374,102,inserted,University_of_Applied_Sciences_Savonia
2022-07-15T15:25:33+02:00,https://github.com/OpenAPC/openapc-de/commit/c3d1fbe2f4454a5c1417071be5f362c0b33d85b8,374,102,inserted,VTT_Technical_Research_Centre_of_Finland_Ltd
2022-07-20T12:19:36+02:00,https://github.com/OpenAPC/openapc-de/commit/3dcb6eb6e7e0d4d55cf65ef3085f87fe9579e207,374,102,removed,Laboratoire_national_d'essais_(LNE)
2022-07-20T12:19:36+02:00,https://github.com/OpenAPC/openapc-de/commit/3dcb6eb6e7e0d4d55cf65ef3085f87fe9579e207,374,102,inserted,Laboratoire_national_de_métrologie_et_d'essais_-_LNE
2022-07-20T12:19:36+02:00,https://github.com/OpenAPC/openapc-de/commit/3dcb6eb6e7e0d4d55cf65ef3085f87fe9579e207,374,102,inserted,La_Rochelle_Université
2022-07-20T12:19:36+02:00,https://github.com/OpenAPC/openapc-de/commit/3dcb6eb6e7e0d4d55cf65ef3085f87fe9579e207,374,102,removed,Université_de_La_Rochelle
2022-07-27T11:53:16+02:00,https://github.com/OpenAPC/openapc-de/commit/c40e6bc29cf699984ab201108362cc1244a52261,376,104,inserted,Université_de_Nîmes
2022-07-27T11:53:16+02:00,https://github.com/OpenAPC/openapc-de/commit/c40e6bc29cf699984ab201108362cc1244a52261,376,104,inserted,Université_de_Rennes_2
2022-08-26T14:45:37+02:00,https://github.com/OpenAPC/openapc-de/commit/563ad804f9d52bc42d97bc2c043d2b33bfec2164,364,92,removed,Aalto_University
2022-08-26T14:45:37+02:00,https://github.com/OpenAPC/openapc-de/commit/563ad804f9d52bc42d97bc2c043d2b33bfec2164,364,92,removed,Finnish_Environment_Institute
2022-08-26T14:45:37+02:00,https://github.com/OpenAPC/openapc-de/commit/563ad804f9d52bc42d97bc2c043d2b33bfec2164,364,92,removed,Haaga-Helia_University_of_Applied_Sciences
2022-08-26T14:45:37+02:00,https://github.com/OpenAPC/openapc-de/commit/563ad804f9d52bc42d97bc2c043d2b33bfec2164,364,92,removed,Häme_University_of_Applied_Sciences
2022-08-26T14:45:37+02:00,https://github.com/OpenAPC/openapc-de/commit/563ad804f9d52bc42d97bc2c043d2b33bfec2164,364,92,removed,JAMK_University_of_Applied_Sciences
2022-08-26T14:45:37+02:00,https://github.com/OpenAPC/openapc-de/commit/563ad804f9d52bc42d97bc2c043d2b33bfec2164,364,92,removed,Lapin_ammattikorkeakoulu_(fi)
2022-08-26T14:45:37+02:00,https://github.com/OpenAPC/openapc-de/commit/563ad804f9d52bc42d97bc2c043d2b33bfec2164,364,92,removed,Natural_Resources_Institute_Finland
2022-08-26T14:45:37+02:00,https://github.com/OpenAPC/openapc-de/commit/563ad804f9d52bc42d97bc2c043d2b33bfec2164,364,92,removed,SAMK_Satakunta_University_of_Applied_Sciences
2022-08-26T14:45:37+02:00,https://github.com/OpenAPC/openapc-de/commit/563ad804f9d52bc42d97bc2c043d2b33bfec2164,364,92,removed,Seinäjoki_University_of_Applied_Sciences
2022-08-26T14:45:37+02:00,https://github.com/OpenAPC/openapc-de/commit/563ad804f9d52bc42d97bc2c043d2b33bfec2164,364,92,removed,South-Eastern_Finland_University_of_Applied_Sciences_(Xamk)
2022-08-26T14:45:37+02:00,https://github.com/OpenAPC/openapc-de/commit/563ad804f9d52bc42d97bc2c043d2b33bfec2164,364,92,removed,University_of_Applied_Sciences_Savonia
2022-08-26T14:45:37+02:00,https://github.com/OpenAPC/openapc-de/commit/563ad804f9d52bc42d97bc2c043d2b33bfec2164,364,92,removed,VTT_Technical_Research_Centre_of_Finland_Ltd
2022-08-26T15:50:45+02:00,https://github.com/OpenAPC/openapc-de/commit/a92bc28fddda04fbd9cd3ef3b9f2ad5e8de80dc0,377,105,inserted,Aalto_University
2022-08-26T15:50:45+02:00,https://github.com/OpenAPC/openapc-de/commit/a92bc28fddda04fbd9cd3ef3b9f2ad5e8de80dc0,377,105,inserted,Finnish_Environment_Institute
2022-08-26T15:50:45+02:00,https://github.com/OpenAPC/openapc-de/commit/a92bc28fddda04fbd9cd3ef3b9f2ad5e8de80dc0,377,105,inserted,Haaga-Helia_University_of_Applied_Sciences
2022-08-26T15:50:45+02:00,https://github.com/OpenAPC/openapc-de/commit/a92bc28fddda04fbd9cd3ef3b9f2ad5e8de80dc0,377,105,inserted,Häme_University_of_Applied_Sciences
2022-08-26T15:50:45+02:00,https://github.com/OpenAPC/openapc-de/commit/a92bc28fddda04fbd9cd3ef3b9f2ad5e8de80dc0,377,105,inserted,JAMK_University_of_Applied_Sciences
2022-08-26T15:50:45+02:00,https://github.com/OpenAPC/openapc-de/commit/a92bc28fddda04fbd9cd3ef3b9f2ad5e8de80dc0,377,105,inserted,Lapin_ammattikorkeakoulu_(fi)
2022-08-26T15:50:45+02:00,https://github.com/OpenAPC/openapc-de/commit/a92bc28fddda04fbd9cd3ef3b9f2ad5e8de80dc0,377,105,inserted,Natural_Resources_Institute_Finland
2022-08-26T15:50:45+02:00,https://github.com/OpenAPC/openapc-de/commit/a92bc28fddda04fbd9cd3ef3b9f2ad5e8de80dc0,377,105,inserted,SAMK_Satakunta_University_of_Applied_Sciences
2022-08-26T15:50:45+02:00,https://github.com/OpenAPC/openapc-de/commit/a92bc28fddda04fbd9cd3ef3b9f2ad5e8de80dc0,377,105,inserted,Seinäjoki_University_of_Applied_Sciences
2022-08-26T15:50:45+02:00,https://github.com/OpenAPC/openapc-de/commit/a92bc28fddda04fbd9cd3ef3b9f2ad5e8de80dc0,377,105,inserted,South-Eastern_Finland_University_of_Applied_Sciences_(Xamk)
2022-08-26T15:50:45+02:00,https://github.com/OpenAPC/openapc-de/commit/a92bc28fddda04fbd9cd3ef3b9f2ad5e8de80dc0,377,105,inserted,The_National_Defence_University
2022-08-26T15:50:45+02:00,https://github.com/OpenAPC/openapc-de/commit/a92bc28fddda04fbd9cd3ef3b9f2ad5e8de80dc0,377,105,inserted,University_of_Applied_Sciences_Savonia
2022-08-26T15:50:45+02:00,https://github.com/OpenAPC/openapc-de/commit/a92bc28fddda04fbd9cd3ef3b9f2ad5e8de80dc0,377,105,inserted,VTT_Technical_Research_Centre_of_Finland_Ltd
2022-09-14T17:11:48+02:00,https://github.com/OpenAPC/openapc-de/commit/9504fdba79121a78b0a7fd46863fe5e5c7445c61,381,109,inserted,CentraleSupélec
2022-09-14T17:11:48+02:00,https://github.com/OpenAPC/openapc-de/commit/9504fdba79121a78b0a7fd46863fe5e5c7445c61,381,109,inserted,Ecole_polytechnique
2022-09-14T17:11:48+02:00,https://github.com/OpenAPC/openapc-de/commit/9504fdba79121a78b0a7fd46863fe5e5c7445c61,381,109,inserted,Université_de_Picardie_Jules_Verne
2022-09-14T17:11:48+02:00,https://github.com/OpenAPC/openapc-de/commit/9504fdba79121a78b0a7fd46863fe5e5c7445c61,381,109,inserted,Université_Paris_Dauphine-PSL
2022-10-11T13:52:42+02:00,https://github.com/OpenAPC/openapc-de/commit/f251d889c47eab7a26a624e0a2fdff941b9f89fa,382,110,inserted,University_of_Oulu
2022-11-09T15:34:24+01:00,https://github.com/OpenAPC/openapc-de/commit/1d865a96c0fbb08d2d5296b4bfa7495aeaf40d94,383,111,inserted,University_Medical_Center_Hamburg-Eppendorf
2022-12-02T15:44:53+01:00,https://github.com/OpenAPC/openapc-de/commit/63b5853cbb48015ed7bc20dfdc5cbad3065cc806,384,112,inserted,Consiglio_Nazionale_Delle_Ricerche_(CNR)
2023-01-10T14:05:56+01:00,https://github.com/OpenAPC/openapc-de/commit/e2c249ec83c07ca1c0bdd2e7a19e0f0ab7dc9578,385,113,inserted,École_nationale_vétérinaire_d'Alfort_(EnvA)
2023-01-18T13:26:36+01:00,https://github.com/OpenAPC/openapc-de/commit/767d3669164f8614d51bc8228615cb70a69f7e1d,388,116,inserted,ANSES
2023-01-18T13:26:36+01:00,https://github.com/OpenAPC/openapc-de/commit/767d3669164f8614d51bc8228615cb70a69f7e1d,388,116,inserted,EHESP
2023-01-18T13:26:36+01:00,https://github.com/OpenAPC/openapc-de/commit/767d3669164f8614d51bc8228615cb70a69f7e1d,388,116,inserted,Université_Paris-Cité
2023-01-26T14:44:41+01:00,https://github.com/OpenAPC/openapc-de/commit/937faa33647fd5768d697401e66109bc38d259f9,389,117,inserted,RWTH_Aachen
2023-01-30T13:07:22+01:00,https://github.com/OpenAPC/openapc-de/commit/0731abd00c9902a65508efcbfee4acd6a968baab,389,117,removed,Université_Paris-Cité
2023-01-30T13:07:22+01:00,https://github.com/OpenAPC/openapc-de/commit/0731abd00c9902a65508efcbfee4acd6a968baab,389,117,inserted,Université_Paris_Cité
2023-02-01T10:39:59+01:00,https://github.com/OpenAPC/openapc-de/commit/1e2f10ff6eb12f85958764578327deb4b54ce8fc,390,118,inserted,DESY
2023-02-01T14:08:50+01:00,https://github.com/OpenAPC/openapc-de/commit/615ad9d9fb153ec31b7c0cfcf01b3c7ef1948a4d,391,119,inserted,Hochschule_Bonn-Rhein-Sieg
2023-03-09T11:35:42+01:00,https://github.com/OpenAPC/openapc-de/commit/bff50b19ba17db861d58ccc49bc65e85dd39b637,392,120,inserted,University_of_Lausanne
2023-03-27T15:48:08+02:00,https://github.com/OpenAPC/openapc-de/commit/8d8e58ea0b0283004cedf3676bd76a1fb7f07af2,393,121,inserted,TH_Brandenburg
2023-04-13T10:37:21+02:00,https://github.com/OpenAPC/openapc-de/commit/e0eb0bf07e295b4766b8ac6ae4b51708b7d726a8,394,122,inserted,TU_Bergakademie_Freiberg
2023-04-17T16:24:38+02:00,https://github.com/OpenAPC/openapc-de/commit/1d60b6a25fffb9f2cc68414ebf3b08c45a6bcdea,395,123,inserted,Aachen_FH
2023-04-25T16:12:08+02:00,https://github.com/OpenAPC/openapc-de/commit/6b61b325591de12288cf4462b07b5fcecdd24a12,396,124,inserted,Uniarts_Helsinki
2023-05-03T16:03:05+02:00,https://github.com/OpenAPC/openapc-de/commit/492adaab320de0ade308e85bd37214b4ea6a35de,397,125,inserted,Université_de_Bordeaux_Montaigne
2023-05-05T12:55:52+02:00,https://github.com/OpenAPC/openapc-de/commit/ee16f86b41e071965389d3f7caeeda1ac3123717,398,126,inserted,Università_degli_Studi_di_Modena_e_Reggio_Emilia
2023-05-12T15:05:59+02:00,https://github.com/OpenAPC/openapc-de/commit/de0afeca90f3163755a2500e923b5b1179077893,399,127,inserted,Potsdam_FH
2023-06-14T09:05:03+02:00,https://github.com/OpenAPC/openapc-de/commit/89cdcfddde8300dacea92bc1a1ce8542ecb7b3ad,400,128,inserted,Université_d'Orléans
